HTTP/1.1 200 OK
Content-Type: application/json; charset=utf-8
Date: Thu, 23 Jul 2026 23:56:03 GMT
Server: Kestrel
Transfer-Encoding: chunked
X-Correlation-Id: d36681fe
api-supported-versions: 1.0, 2.0

{"data":[{"id":14,"title":"Advanced SQL and Indexing","code":"DAT-201","maxCapacity":26,"enrollmentCount":2},{"id":7,"title":"Advanced Web API Patterns","code":"CSE-301","maxCapacity":24,"enrollmentCount":0},{"id":9,"title":"Angular Advanced","code":"CSE-303","maxCapacity":24,"enrollmentCount":0},{"id":8,"title":"Angular Fundamentals","code":"CSE-302","maxCapacity":26,"enrollmentCount":0},{"id":22,"title":"Applied Machine Learning","code":"AI-101","maxCapacity":20,"enrollmentCount":0},{"id":4,"title":"ASP.NET Core Fundamentals","code":"CSE-201","maxCapacity":28,"enrollmentCount":0},{"id":6,"title":"Building RESTful Web APIs","code":"CSE-203","maxCapacity":28,"enrollmentCount":0},{"id":17,"title":"Cloud-Native Architecture","code":"ARC-201","maxCapacity":22,"enrollmentCount":0},{"id":19,"title":"Continuous Delivery Pipelines","code":"DEV-201","maxCapacity":22,"enrollmentCount":0},{"id":21,"title":"Cross-Platform Mobile","code":"MOB-201","maxCapacity":22,"enrollmentCount":0},{"id":15,"title":"Data Modelling for the Web","code":"DAT-202","maxCapacity":26,"enrollmentCount":0},{"id":13,"title":"Database Design Foundations","code":"DAT-101","maxCapacity":30,"enrollmentCount":0},{"id":25,"title":"Design Systems and Tokens","code":"UX-201","maxCapacity":22,"enrollmentCount":0},{"id":18,"title":"DevOps Foundations","code":"DEV-101","maxCapacity":24,"enrollmentCount":0},{"id":5,"title":"Entity Framework Core and PostgreSQL","code":"CSE-202","maxCapacity":28,"enrollmentCount":0},{"id":10,"title":"Full-Stack Integration","code":"CSE-304","maxCapacity":22,"enrollmentCount":0},{"id":23,"title":"Generative AI for Developers","code":"AI-201","maxCapacity":18,"enrollmentCount":0},{"id":3,"title":"Git and Collaborative Workflows","code":"CSE-103","maxCapacity":25,"enrollmentCount":0},{"id":20,"title":"Mobile App Foundations","code":"MOB-101","maxCapacity":24,"enrollmentCount":0},{"id":12,"title":"Security and Authentication","code":"CSE-306","maxCapacity":20,"enrollmentCount":0}],"meta":{"totalCount":25,"page":1,"pageSize":20,"totalPages":2,"hasNext":true,"hasPrevious":false},"links":{"self":"/api/v2/courses?page=1&pageSize=20","next":"/api/v2/courses?page=2&pageSize=20","prev":null,"enroll":"/api/v2/enrollments"}}